[ 
    [1, 0.0],
    [2, 0.0],
    [3, 1.6],
    [4, 2.6],
    [5, 2.6],
    [6, 3.9],
    [7, 3.5],
    [8, 5.9],
    [9, 5.9],
    [10, 6.7],
    [11, 6.8],
    [12, 9.0],
    [13, 9.6],
    [14, 9.9],
    [15, 10.8],
    [16, 11.9],
    [17, 12.8],
    [18, 13.8],
    [19, 14.5],
    [20, 14.7],
    [21, 15.2],
    [22, 16.8],
    [23, 17.5],
    [24, 17.9],
    [25, 17.8],
    [26, 19.3],
    [27, 20.6],
    [28, 22.0],
    [29, 21.8],
    [30, 22.0],
    [31, 24.2],
    [32, 24.1],
    [33, 26.5],
    [34, 25.5],
    [35, 27.7],
    [36, 29.2],
    [37, 27.8],
    [38, 30.8],
    [39, 31.1],
    [40, 31.8],
    [41, 31.4],
    [42, 31.2],
    [43, 35.3],
    [44, 35.8],
    [45, 34.0],
    [46, 37.3],
    [47, 35.2],
    [48, 36.8],
    [49, 38.2],
    [50, 40.9],
    [51, 39.0],
    [52, 42.1],
    [53, 41.1],
    [54, 41.4],
    [55, 40.8],
    [56, 42.8],
    [57, 42.9],
    [58, 42.5],
    [59, 45.5],
    [60, 47.3],
    [61, 49.3],
    [62, 47.4],
    [63, 45.7],
    [64, 50.5],
    [65, 50.3],
    [66, 54.0],
    [67, 51.9],
    [68, 52.9],
    [69, 52.3],
    [70, 56.5],
    [71, 53.3],
    [72, 52.5],
    [73, 54.5],
    [74, 56.9],
    [75, 60.9],
    [76, 58.4],
    [77, 60.4],
    [78, 63.3],
    [79, 61.3],
    [80, 63.8],
    [81, 64.0],
    [82, 61.3],
    [83, 66.8],
    [84, 64.6],
    [85, 64.8],
    [86, 65.4],
    [87, 66.3],
    [88, 68.8],
    [89, 68.5],
    [90, 69.8],
    [91, 71.6],
    [92, 74.8],
    [93, 74.2],
    [94, 73.1],
    [95, 75.1],
    [96, 72.1],
    [97, 76.3],
    [98, 78.0],
    [99, 77.3],
    [100, 80.4]
]